Tiffany Miller
 Philadelphia, PA 19143	
(215)571-4952  email: tiffanymillerwells@yahoocom

SUMMARY

Dedicated  File  Clerk proficient in  Basic office duties and handling large quanity of files  Knowledge and experience of Filing and Company computer  systems of  records effectively.  Typing  40 wpm

PROFESSIONAL 

Disa (Universal Services) Philadelphia PA
7/2017- 3/2020
File Clerk
●	Computerized stamping and entering information on system
●	Opened, sorted mail for storing in file room disgarded non needed documents

Chelten District Office, Philadelphia, PA 	                                                1/2010 – 3/2011
WESOD Clerical Assistant
●	Filed folders and records alpha numerically order and purging files from filing system for archive
●	Shredded documents

		                                                                                                                                                                                              INTERNSHIP EXPERIENCE

PA CareerLink Center, Philadelphia, PA 	                                               1/2016 – 6/2017
File Clerk Intern in Quality Assurance
●	Retrieved materials from supervisor, new material to file records, and create new folders as necessary
●	Filing clients folders or charts, corrected misplaced documents, charts  and copied                                          

EDUCATION AND TRAINING

●	PA CareerLink, Philadelphia, PA - Microsoft Office Classes to include Word, Excel, and PowerPoint, 2016
●	Center Post Village, Philadelphia, PA - Certificate of Completion: Internet and Applications, 04/2007
			
 






































